[Hooked Modules]
ARBENE.EXE=T

[Non-Hooked Modules]
UNZIP32.DLL=T
ZIP32.DLL=T
OLE32.DLL=T
OLEAUT32.DLL=T
MSVCRT.DLL=T
MSWSOCK.DLL=T
SYNTPFCS.DLL=T
OLEPRO32.DLL=T
IMGHOOK.DLL=T
LIBMYSQL.DLL=T
RICHED32.DLL=T
MLANG.DLL=T
SENSAPI.DLL=T
MSNET32.DLL=T
RASAPI32.DLL=T
MPR.DLL=T
NETBIOS.DLL=T
TAPI32.DLL=T
MSPWL32.DLL=T
SVRAPI.DLL=T
SECUR32.DLL=T
MSVCRT20.DLL=T
SHFOLDER.DLL=T
MSAFD.DLL=T
RNR20.DLL=T
LZ32.DLL=T
INDICDLL.dll=T
IMM32.dll=T
RICHED20.dll=T
wshtcpip.dll=T
rasadhlp.dll=T
winrnr.dll=T
DHCPCSVC.DLL=T
RASMAN.DLL=T
USERENV.DLL=T
SETUPAPI.DLL=T
RTUTILS.DLL=T
ADSLDPC.DLL=T
ACTIVEDS.DLL=T
MPRAPI.DLL=T
ICMP.DLL=T
iphlpapi.dll=T
CLBCATQ.DLL=T
EuShlExt.dll=T
CSCDLL.DLL=T
cscui.dll=T
msi.dll=T
[Search Dirs]
d:\borland\Delphi4\Bin\=T
d:\borland\Delphi4\Imports\=T
d:\borland\Delphi4\Lib\=T
d:\borland\Delphi4\Lib\chart\=T
d:\borland\Delphi4\Lib\cipher\dec\source\=T
d:\borland\Delphi4\Lib\dcpcrypt\=T
d:\borland\Delphi4\Lib\dcpcrypt\ciphers\=T
d:\borland\Delphi4\Lib\dcpcrypt\hashes\=T
d:\borland\Delphi4\Lib\excel\=T
d:\borland\Delphi4\Lib\grid\=T
d:\borland\Delphi4\Lib\lzr\compon\=T
d:\borland\Delphi4\Lib\mailslot\=T
d:\borland\Delphi4\Lib\synapse\source\lib\=T
d:\borland\Delphi4\Lib\viewer\=T
d:\borland\Delphi4\Lib\wolf\=T
d:\borland\Delphi4\Lib\zeosdbo\=T
d:\borland\Delphi4\Lib\zeosdbo\common\=T
d:\borland\Delphi4\Lib\zeosdbo\dbase\=T
d:\borland\Delphi4\Lib\zip\=T
d:\borland\Delphi4\sLib\=T
d:\borland\Delphi4\source\Internet\=T
d:\borland\Delphi4\source\rtl\Corba\=T
d:\borland\Delphi4\source\rtl\Sys\=T
d:\borland\Delphi4\source\rtl\Win\=T
d:\borland\Delphi4\source\vcl\=T
